Maryland’s running game recovered from Indiana loss. But it wasn’t enough. – Cohen nerds out on sports
…
Before its historic but unfruitful rushing performance against Rutgers, Maryland had had been consistently under the Big Ten average in rushing yards per attempt. What’s been equally poor is Maryland’s rush defense. Albeit against lesser competition, Maryland only allowed one team to eclipse 100 rushing yards during its 4-0 start. Since then? Maryland has allowed nearly 225 rushing yards per game. That’s the second worst mark among Power 4 teams and sixth worst nationally of any team after its first four games.

The only power conference team worse than Maryland is Rutgers. And the Terps couldn’t even take advantage of that.

Code

logs |> 
  filter(Gtm > 4) |> 
  group_by(Team) |>
  summarise(
    avg_rush_def = mean(DefRushYds)
  ) |> 
  arrange(desc(avg_rush_def))

# A tibble: 136 × 2
   Team             avg_rush_def
   <chr>                   <dbl>
 1 Sam Houston              251.
 2 Charlotte                242.
 3 North Texas              228.
 4 Florida Atlantic         227.
 5 Rutgers                  226.
 6 Maryland                 225.
 7 Colorado                 222.
 8 Colorado State           213.
 9 Nevada-Las Vegas         212.
10 Georgia State            211 
# ℹ 126 more rows
