Cohen nerds out on sports - Is running the ball on third and medium distance dumb? It might not be fun, but it may well be justified.
…
Well, that may explain why coordinators run the ball a noticeable amount on third and six! It does, occasionally, work. Teams average 5.7 yards gained when running the ball on this down and distance. That is, of course, less than six, but it is pretty close that running the ball may seem like a worth gamble. Especially given that there are more pass incompletions than rushing attempts at all, a rush may seem a little bit safer.

A run on third down may also be getting close to the first down maker in these situation because defenses aren’t expecting it and are more focused on defending the pass. That can leave open running lanes.

Which teams do this the most?

Code

thirdandsix |> 
  filter(play_type == "Rush") |> 
  group_by(pos_team) |> 
  summarize(rush_attempts = n()) |> 
  arrange(desc(rush_attempts))

# A tibble: 289 × 2
   pos_team      rush_attempts
   <chr>                 <int>
 1 Army                     44
 2 Navy                     39
 3 Air Force                37
 4 West Virginia            30
 5 Baylor                   29
 6 New Mexico               29
 7 UNLV                     27
 8 Michigan                 24
 9 Ole Miss                 24
10 Florida State            23
# ℹ 279 more rows
…
